{
  "name": "Química I",
  "image": "portada.jpg",
  "temas": [
    {
      "tema": "Introducción",
      "subtemas": [
        {
          "tema": "Bloque III",
          "url": "index.html"
        },
        {
          "tema": "Integración",
          "url": "integracion.html"
        },
        {
          "tema": "Evaluación diagnóstica",
          "url": "mi_entorno_evaluacion_diagnostica.html"
        },
        {
          "tema": "Mis intereses",
          "url": "mis_intereses.html"
        }
      ]
    },
    {
      "tema": "Modelos atómicos: Dalton, Thomson, Rutherford y Bohr",
      "subtemas": [
        {
          "tema": "Modelos atómicos: Dalton, Thomson, Rutherford y Bohr",
          "url": "tema1.0.0.html"
        },
        {
          "tema": "Teoría atómica moderna",
          "url": "tema1.1.0.html"
        },
        {
          "tema": "Actividad 1",
          "url": "tema1.1.0A1.html"
        },
        {
          "tema": "Modelo mecánico cuántico del átomo",
          "url": "tema1.2.0.html"
        },
        {
          "tema": "Actividad 2",
          "url": "tema1.2.0A2.html"
        }
      ]
    },
    {
      "tema": "Partículas subatómicas",
      "subtemas": [
        {
          "tema": "Partículas subatómicas",
          "url": "tema2.0.0.html"
        },
        {
          "tema": "Actividad 3",
          "url": "tema2.0.0A3.html"
        },
        {
          "tema": "Práctica experimental",
          "url": "tema2.0.0A3_practica_experimental.html"
        },
        {
          "tema": "Número atómico, masa atómica y número de masa",
          "url": "tema2.1.0.html"
        },
        {
          "tema": "Actividad 4",
          "url": "tema2.1.0A4.html"
        },
        {
          "tema": "Actividad 5",
          "url": "tema2.1.0A5.html"
        },
        {
          "tema": "Integración",
          "url": "tema2.1.0A5_integracion.html"
        }
      ]
    },
    {
      "tema": "Configuraciones electrónicas y números cuánticos",
      "subtemas": [
        {
          "tema": "Configuración electrónica",
          "url": "tema3.0.0.html"
        },
        {
          "tema": "Mecánica cuántica",
          "url": "tema3.1.0.html"
        },
        {
          "tema": "n, l, m, s",
          "url": "tema3.2.0.html"
        },
        {
          "tema": "Actividad 6",
          "url": "tema3.2.0A6.html"
        }
      ]
    },


    {
      "tema": "Isótopos",
      "subtemas": [
        {
          "tema": "Isótopos",
          "url": "tema4.0.0.html"
        },
        {
          "tema": "Actividad 7",
          "url": "tema4.0.0A7.html"
        },
        {
          "tema": "Actividad 8",
          "url": "tema4.0.0A8.html"
        },
        {
          "tema": "Evaluación formativa",
          "url": "tema4.0.0A8_evaluacion_formativa.html"
        },
        {
          "tema": "Fomento a la lectura",
          "url": "tema4.0.0A8_fomento_lectura.html"
        },
        {
          "tema": "Actividad 9",
          "url": "tema4.0.0A9.html"
        },
        {
          "tema": "Integración",
          "url": "tema4.0.0A9_integracion.html"
        },
        {
          "tema": "Autoevaluación",
          "url": "tema4.0.0A9_autoevaluacion.html"
        },
        {
          "tema": "Evaluación sumativa",
          "url": "tema4.0.0A9_evaluacion_sumativa.html"
        },
        {
          "tema": "Prueba tipo PLANEA",
          "url": "tema4.0.0A9_prueba_planea.html"
        }
      ]
    }
  ]
}
