{
  "name": "Química I",
  "image": "portada.jpg",
  "temas": [
    {
      "tema": "Introducción",
      "subtemas": [
        {
          "tema": "Bloque II",
          "url": "index.html"
        },
        {
          "tema": "Integración",
          "url": "integracion.html"
        },
        {
          "tema": "Evaluación diagnóstica",
          "url": "mi_entorno_evaluacion_diagnostica.html"
        },
        {
          "tema": "Mis intereses",
          "url": "mis_intereses.html"
        }
      ]
    },
    {
      "tema": "Materia",
      "subtemas": [
        {
          "tema": "Materia",
          "url": "tema1.0.0.html"
        },
        {
          "tema": "Actividad 1",
          "url": "tema1.0.0A1.html"
        },
        {
          "tema": "Propiedades de la materia",
          "url": "tema1.1.0.html"
        },
        {
          "tema": "Actividad 2",
          "url": "tema1.1.0A2.html"
        },
        {
          "tema": "Actividad 3",
          "url": "tema1.1.0A3.html"
        },
        {
          "tema": "Práctica experimental",
          "url": "tema1.1.0A3_practica_experimental.html"
        },
        {
          "tema": "Transformaciones de la materia",
          "url": "tema1.2.0.html"
        },
        {
          "tema": "Actividad 4",
          "url": "tema1.2.0A4.html"
        },
        {
          "tema": "Práctica experimental",
          "url": "tema1.2.0A4_practica_experimental.html"
        },
        {
          "tema": "Caracterización de los estados de agregación de la materia",
          "url": "tema1.3.0.html"
        },
        {
          "tema": "Actividad 5",
          "url": "tema1.3.0A5.html"
        },
        {
          "tema": "Integración",
          "url": "tema1.3.0A5_integracion.html"
        },
        {
          "tema": "Evaluación formativa",
          "url": "tema1.3.0A5_evaluacion_formativa.html"
        }

      ]
    },
    {
      "tema": "Energía",
      "subtemas": [
        {
          "tema": "Tipos y transformaciones",
          "url": "tema2.0.0.html"
        },
        {
          "tema": "Ley de la conservación de la energía",
          "url": "tema2.1.0.html"
        },
        {
          "tema": "Práctica experimental",
          "url": "tema2.1.0_practica_experimental.html"
        },
        {
          "tema": "Actividad 6",
          "url": "tema2.1.0A6.html"
        },
        {
          "tema": "Energías limpias",
          "url": "tema2.2.0.html"
        },
        {
          "tema": "Actividad 7",
          "url": "tema2.2.0A7.html"
        },
        {
          "tema": "Evaluación formativa",
          "url": "tema2.2.0A7_evaluacion_formativa.html"
        },
        {
          "tema": "Actividad 8",
          "url": "tema2.2.0A8.html"
        },
        {
          "tema": "Integración",
          "url": "tema2.2.0A8_integracion.html"
        },
        {
          "tema": "Autoevaluación",
          "url": "tema2.2.0A8_autoevaluacion.html"
        },
        {
          "tema": "Evaluación sumativa",
          "url": "tema2.2.0A8_evaluacion_sumativa.html"
        },
        {
          "tema": "Pruebas tipo PLANEA",
          "url": "tema2.2.0A8_prueba_planea.html"
        }

      ]
    }
  ]
}
